%YAML 1.1
%TAG !u! tag:unity3d.com,2011:
--- !u!1045 &1
EditorBuildSettings:
  m_ObjectHideFlags: 0
  serializedVersion: 2
  m_Scenes:
  - enabled: 1
    path: Assets/_Game/_Scenes/Splash.unity
    guid: c98608568b334a5abbcf2f2a5ce47f3f
  - enabled: 1
    path: Assets/_Game/_Scenes/NotiSc.unity
    guid: 2cd1b3654c9c4d72b2442aa63cd01bce
  - enabled: 1
    path: Assets/_Game/_Scenes/PaintScene.unity
    guid: 215716152eba4f83b22c7905385c0664
  - enabled: 1
    path: Assets/_Game/_Scenes/gms.unity
    guid: 4405c414b2cb4ee4988fba09b5b4a3a6
  - enabled: 1
    path: Assets/_Game/_Scenes/MainScene.unity
    guid: 63a5cd14ff814611b82de3a7439917d5
  m_configObjects: {}
